<?xml version="1.0" encoding="UTF-8" standalone="no"?>
<svg
   fill="none"
   version="1.1"
   id="svg4"
   inkscape:version="1.2.1 (9c6d41e410, 2022-07-14)"
   viewBox="-0.05 -0.05 38.100061 36.574326"
   width="38.10006"
   height="36.574326"
   xmlns="http://www.w3.org/2000/svg"
   xmlns:svg="http://www.w3.org/2000/svg">
  <defs
     id="defs8" />
  <path
     d="m 14.76856,25.92 c 0,0 -0.0794,0 -0.1984,-0.0789 -0.119,-0.0395 -0.3174,-0.1184 -0.5951,-0.2367 -0.476,-0.2367 -1.1901,-0.6312 -2.0232,-1.3414 -0.3967,-0.3551 -0.8331,-0.789 -1.2298,-1.3808 -0.3967,-0.5523 -0.7934303,-1.2625 -1.0314603,-2.091 -0.2777,-0.8285 -0.35708,-1.8148 -0.23807,-2.88 0.03967,-0.2367 0.11903,-0.5128 0.1587,-0.789 l 0.03966,-0.1973 v -0.0394 c 0,-0.0395 4e-5,0.0394 0.03971,-0.1184 l 0.03966,-0.0789 0.11899,-0.3156 c 0.07934,-0.1973 0.11905,-0.3945 0.2381103,-0.6312 0.119,-0.2367 0.238,-0.5129 0.3173,-0.7496 0.4761,-0.9863 1.1108,-1.9332 2.0232,-2.8011 0.4364,-0.434 0.9918,-0.7891 1.5472,-1.1441 0.5951,-0.3156 1.1902,-0.5918 1.8249,-0.7496 0.6348,-0.1578 1.3092,-0.2762 1.9439,-0.35509 l 0.4761,-0.03944 h 0.238 0.0397 0.1587 0.119 c 0.1587,0 0.238,-10e-6 0.5157,0.03944 l 0.3571,0.03946 0.1587,0.03943 0.1189,0.0395 c 1.4679,0.355 2.7374,0.9863 3.9275,1.8937 1.1902,0.9074 2.2217,2.1304 2.8961,3.6296 0.357,0.7496 0.5553,1.5386 0.714,2.3276 0.0794,0.3946 0.0794,0.8285 0.1191,1.223 v 0.1579 0.1972 0.2762 0.5129 c -0.0397,0.3945 -0.0397,0.8284 -0.0794,1.223 -0.0397,0.3945 -0.0793,0.789 -0.1587,1.1835 -0.119,0.7891 -0.3967,1.6176 -0.7141,2.4066 -0.357,0.7891 -0.7934,1.5781 -1.3488,2.2882 -0.5554,0.7102 -1.2695,1.3414 -1.9836,1.8937 -0.7537,0.5523 -1.5868,0.9469 -2.4199,1.3019 l -0.6348,0.2368 -0.0793,0.0394 -0.1587,0.0395 -0.1587,0.0394 -0.2777,0.0789 -0.2777,0.0789 c -0.119,0.0395 -0.238,0.0395 -0.357,0.0789 l -0.7538,0.1184 c -1.8646,0.1972 -3.8085,-0.0395 -5.5937,-0.7891 -1.7852,-0.7101 -3.4513603,-1.9331 -4.6811803,-3.4717 -0.59507,-0.7891 -1.15049,-1.657 -1.50753,-2.6039 l -0.1587,-0.355 -0.07932,-0.1579 c 0,0.0395 -0.03966,-0.1578 -0.03966,-0.1578 l -0.03971,-0.0789 -0.19836,-0.6312 c -0.11901,-0.3945 -0.23799,-0.9469 -0.357,-1.4597 -0.75376,-4.0241 0.59503,-8.285 3.33236,-11.4017 0.71409,-0.74956 1.4679003,-1.49915 2.3406003,-2.09093 0.1984,-0.15781 0.4364,-0.27617 0.6745,-0.43397 l 0.1586,-0.11835 0.0794,-0.03946 c 0.0793,-0.03945 0,0 0.1587,-0.07891 l 0.3173,-0.1578 c 0.3571,-0.19726 0.9918,-0.43398 1.5076,-0.63124 2.1025,-0.67068 4.2845,-0.74959 6.3871,-0.43397 1.0711,0.1578 2.1026,0.39452 3.134,0.78904 1.0315,0.39452 2.0233,0.9074 2.9754,1.61753 l 0.357,0.27617 0.3174,0.27616 0.2777,0.23671 0.3173,0.31563 c 0.1984,0.19726 0.3968,0.39449 0.5555,0.63119 0.1983,0.1973 0.357,0.3946 0.5157,0.6313 0.6744,0.8679 1.2695,1.7753 1.7852,2.7616 0.4761,0.9863 0.8728,2.0121 1.1505,3.0773 0.2777,1.0652 0.3967,2.1698 0.476,3.2745 0,1.1047 -0.0397,2.2093 -0.2777,3.314 l -0.0793,0.3945 -0.0793,0.3945 c -0.0397,0.2367 -0.1588,0.5523 -0.2381,0.8285 -0.1587,0.5523 -0.357,1.0652 -0.5951,1.5781 -0.9124,2.0515 -2.2216,3.9057 -3.8481,5.4444 -1.6265,1.5386 -3.6498,2.6827 -5.7524,3.4323 l -0.0793,0.0395 c -0.0396,0 -0.1587,0.0394 -0.1587,0.0394 l -0.1983,0.0394 -0.3571,0.1184 c -0.238,0.0789 -0.4761,0.1578 -0.7538,0.2367 -0.5554,0.1184 -1.1504,0.2762 -1.7058,0.3551 -1.1108,0.1973 -2.2613,0.1972 -3.4118,0.1578 -2.3009,-0.1578 -4.5622,-0.9074 -6.4664003,-2.1304 -0.95211,-0.5918 -1.86459,-1.3019 -2.65802,-2.1304 l -0.59507,-0.6313 -0.07932,-0.0789 c -0.11902,-0.1183 -0.07936,-0.0789 -0.11904,-0.1183 l -0.11898,-0.1578 -0.23802,-0.3156 c -0.31737,-0.434 -0.63475,-0.7496 -0.95213,-1.2625 -0.31737,-0.4734 -0.63476,-0.9469 -0.91246,-1.4597 l -0.75377,-1.4598 c -0.43638,-1.0257 -0.87274,-2.012 -1.11076797,-3.0772 -0.357043,-1.0258 -0.476087,-2.1304 -0.674444,-3.1956 -0.0793431,-1.1047 -0.1983381,-2.1699 -0.0793237,-3.2746 0.0396714,-2.2093 0.6744147,-4.3791 1.58685567,-6.3123 0.91245,-1.93314 2.14226,-3.74793 3.57043,-5.28656 1.46785,-1.57808 3.17373,-2.88 5.1176603,-3.82685 0.9521,-0.47343 1.9835,-0.867942 3.015,-1.104655 l 0.7934,-0.19726 0.1984,-0.039454 c 0.1587,-0.039452 0.0793,-3e-6 0.1587,-0.039455 h 0.0793 l 0.3571,-0.039454 1.4678,-0.197261 0.7141,-0.0788965 h 0.7934 c 0.5157,0 1.0711,-2.4e-6 1.5869,-0.0394545 h 0.3967 l 0.3967,0.0394545 0.7538,0.0788965 c 0.5157,0.078904 1.0314,0.078904 1.5075,0.197261 2.0232,0.39452 3.9671,1.065208 5.7523,2.051508 0.8728,0.55233 1.7059,1.0652 2.4597,1.69644 0.1983,0.1578 0.3967,0.31562 0.5951,0.47343 l 0.5157,0.47341 c 0.357,0.31562 0.7141,0.67069 1.0314,1.02576 1.3489,1.38082 2.539,2.9589 3.4118,4.69484 0.8728,1.7358 1.3885,3.5901 1.5868,5.4443 0.1191,0.9469 0.119,1.8543 0.0794,2.7617 v 0.1578 0.1183 0.079 l -0.0397,0.3156 -0.0793,0.6312 c -0.0397,0.434 -0.0794,0.8679 -0.1191,1.2625 -0.119,0.8679 -0.2776,1.7359 -0.4363,2.6038 -0.1587,0.868 -0.3967,1.657 -0.5951,2.4855 -5.760734,6.515037 -5.768382,6.277531 -3.534072,2.391186 C 34.90441,25.597517 35.39766,24.6181 35.51676,23.829 c 0.119,-0.789 0.2777,-1.578 0.357,-2.446 0.0397,-0.434 0.0793,-0.8679 0.119,-1.3019 l 0.0397,-0.6312 0.0397,-0.3157 v -0.0789 -0.0394 -0.1578 c 0,-0.8285 -10e-5,-1.657 -0.1191,-2.446 -0.3967,-3.2746 -2.0629,-6.3913 -4.5622,-8.87675 -0.3174,-0.31562 -0.6347,-0.59179 -0.9521,-0.90741 L 29.92306,6.15452 29.40726,5.76 c -0.6744,-0.55233 -1.4281,-1.02576 -2.1819,-1.45973 -1.5868,-0.82849 -3.253,-1.42027 -5.0382,-1.73589 -0.4364,-0.0789 -0.9125,-0.0789 -1.3489,-0.1578 l -0.6744,-0.07891 -0.357,-0.03946 h -0.3174 l -1.3489,0.03946 h -0.6744 l -0.7141,0.11835 -1.4678,0.19726 -0.357,0.03945 h -0.0794 -0.0397 L 14.64956,2.72219 13.97506,2.88 c -0.8727,0.23671 -1.7059,0.55232 -2.539,0.94684 -3.2530103,1.61754 -5.8713003,4.6159 -7.4581603,8.04826 -0.79343,1.6964 -1.26951,3.5112 -1.30918,5.3654 -0.07934,0.9469 0.03969,1.8937 0.11904,2.8406 0.15868,0.9468 0.2777,1.8937 0.59507,2.7616 0.23803,0.9074 0.63474,1.7754 0.99178,2.6828 l 0.6744,1.2624 c 0.23803,0.3946 0.47607,0.7496 0.75377,1.1442 0.19835,0.355 0.59509,0.789 0.91246,1.1835 l 0.23802,0.3156 0.11898,0.1578 c 0,0 0.07935,0.1184 0,0 l 0.07938,0.0789 0.47603,0.5129 c 0.67442,0.6313 1.38851,1.223 2.18194,1.6965 1.5471703,0.9863 3.3323703,1.5386 5.1572703,1.6175 0.9125,0.0394 1.8249,0 2.7374,-0.1578 0.476,-0.0395 0.8727,-0.1973 1.3091,-0.2762 0.1984,-0.0394 0.4761,-0.1578 0.7141,-0.2367 l 0.357,-0.1184 0.1984,-0.0394 c 0.0793,-0.0395 0,0 0.0397,0 l 0.0793,-0.0395 c 1.7456,-0.6706 3.3721,-1.578 4.6812,-2.8405 1.3489,-1.223 2.42,-2.7616 3.1341,-4.4186 0.1587,-0.434 0.3173,-0.8285 0.476,-1.2625 0.0397,-0.1973 0.1191,-0.3551 0.1587,-0.6312 l 0.0794,-0.3157 0.0397,-0.355 c 0.1586,-0.9074 0.1983,-1.7754 0.1983,-2.6828 -0.0397,-0.9073 -0.1587,-1.7753 -0.3967,-2.6038 -0.238,-0.8679 -0.5554,-1.657 -0.9521,-2.446 -0.3967,-0.7891 -0.8728,-1.5386 -1.4282,-2.2093 -0.119,-0.1578 -0.2777,-0.3551 -0.4364,-0.5129 -0.1586,-0.1578 -0.2777,-0.3156 -0.4364,-0.4734 l -0.1983,-0.2367 -0.2777,-0.2368 -0.238,-0.2367 -0.2381,-0.1578 c -1.2298,-0.9468 -2.9754,-1.53861 -4.6416,-1.77532 -1.7058,-0.23671 -3.4514,-0.15781 -4.9589,0.35506 -0.3174,0.11836 -0.6347,0.19727 -1.0711,0.47346 l -0.3174,0.1578 c 0.119,-0.0789 0,0 0,0 l -0.0793,0.0394 -0.119,0.0789 c -0.1587,0.1184 -0.3571,0.1973 -0.5157,0.3157 -0.6745,0.4734 -1.2695,1.0257 -1.7853,1.6175 -2.1422203,2.446 -3.1340003,5.76 -2.5786003,8.6794 0.07934,0.3551 0.11899,0.6707 0.27768,1.1047 l 0.19835,0.6312 0.03967,0.0789 c 0,0.0395 -0.03968,-0.0789 0,0 l 0.03966,0.1184 0.11903,0.2367 c 0.2777,0.6707 0.67444,1.2625 1.1108103,1.8542 0.9125,1.1047 2.0629,1.9727 3.3721,2.4461 1.3091,0.5129 2.6976,0.6707 4.0068,0.5523 l 0.4364,-0.0789 c 0.0793,0 0.119,0 0.238,-0.0394 l 0.2777,-0.079 0.2777,-0.0789 0.1587,-0.0394 c 0,0 0.119,-0.0395 0,0 l 0.0397,-0.0395 0.476,-0.1578 c 0.5951,-0.2367 1.1902,-0.5523 1.7059,-0.9074 1.0314,-0.7101 1.7455,-1.6964 2.2216,-2.8011 0.1983,-0.5523 0.3967,-1.1441 0.5157,-1.7359 0.0794,-0.3156 0.0793,-0.6312 0.119,-0.9074 0.0397,-0.3156 0.0397,-0.5917 0.0397,-0.9074 v -0.5128 -0.2762 -0.0789 c 0,0 0,-0.0789 0,0 v -0.1184 c -0.0396,-0.2761 -0.0397,-0.5523 -0.0793,-0.8284 -0.1191,-0.5129 -0.2381,-1.0258 -0.4761,-1.4992 -0.4364,-0.9469 -1.1108,-1.7359 -1.9042,-2.3671 -0.7935,-0.6313 -1.7456,-1.0652 -2.5787,-1.2625 l -0.0793,-0.0395 h -0.0397 -0.0793 c 0,-0.0394 -0.1984,-0.0394 -0.3571,-0.0394 h -0.119 0.0793 -0.0396 -0.1984 l -0.357,0.0394 c -0.4761,0.0395 -0.9125,0.1184 -1.3489,0.2368 -1.6265,0.4339 -2.6183,1.578 -3.253,2.8799 -0.0793,0.1579 -0.1587,0.3157 -0.1984,0.4735 -0.0793,0.1578 -0.1586,0.3945 -0.1983,0.5918 l -0.1191,0.3156 -0.0396,0.0789 c 0.0397,-0.1184 0,0 0,-0.0395 v 0.0395 l -0.0397,0.1183 c -0.0396,0.1578 -0.0396,0.2762 -0.0793,0.3946 -0.0397,0.5523 -0.0793,1.0652 0,1.578 0.1587,1.0258 0.5951,2.0121 0.9918,2.8011 0.3967,0.7891 0.7537,1.4203 0.9918,1.8543 0.238,0.4339 0.3967,0.6707 0.3967,0.6707 z"
     fill="white"
     id="path2"
     style="fill:#ffffff;stroke:#000000;stroke-width:0.1;stroke-dasharray:none;stroke-opacity:0.073507"/>
</svg>
