<?xml version="1.0" encoding="UTF-8" standalone="no"?>
<svg
   width="15"
   height="17"
   viewBox="0 0 15 17"
   fill="none"
   version="1.1"
   id="svg12"
   sodipodi:docname="repeat_one.svg"
   inkscape:version="1.2.1 (9c6d41e410, 2022-07-14)"
   xmlns:inkscape="http://www.inkscape.org/namespaces/inkscape"
   xmlns:sodipodi="http://sodipodi.sourceforge.net/DTD/sodipodi-0.dtd"
   xmlns="http://www.w3.org/2000/svg"
   xmlns:svg="http://www.w3.org/2000/svg">
  <defs
     id="defs16" />
  <sodipodi:namedview
     id="namedview14"
     pagecolor="#ffffff"
     bordercolor="#000000"
     borderopacity="0.25"
     inkscape:showpageshadow="2"
     inkscape:pageopacity="0.0"
     inkscape:pagecheckerboard="0"
     inkscape:deskcolor="#d1d1d1"
     showgrid="false"
     inkscape:zoom="43.705882"
     inkscape:cx="7.5047106"
     inkscape:cy="8.5"
     inkscape:window-width="1920"
     inkscape:window-height="1012"
     inkscape:window-x="0"
     inkscape:window-y="0"
     inkscape:window-maximized="1"
     inkscape:current-layer="svg12" />
  <g
     opacity="0.75"
     id="g10">
    <path
       d="M10.5454 1L13.2727 3.72727L10.5454 6.45455"
       stroke="#818586"
       stroke-width="2"
       stroke-linecap="round"
       stroke-linejoin="round"
       id="path2" />
    <path
       d="M1 7.81819V6.45455C1 5.73123 1.28734 5.03754 1.7988 4.52608C2.31026 4.01462 3.00396 3.72728 3.72727 3.72728H13.2727"
       stroke="#818586"
       stroke-width="2"
       stroke-linecap="round"
       stroke-linejoin="round"
       id="path4" />
    <path
       d="M3.72727 16L1 13.2727L3.72727 10.5454"
       stroke="#818586"
       stroke-width="2"
       stroke-linecap="round"
       stroke-linejoin="round"
       id="path6" />
    <path
       d="m 13.2727,9.18182 v 0.903639 0.229841 0.2302 c 0,0.7233 -0.2873,1.417 -0.7988,1.9284 -0.5114,0.5115 -1.2051,0.7988 -1.9284,0.7988 H 1"
       stroke="#818586"
       stroke-width="2"
       stroke-linecap="round"
       stroke-linejoin="round"
       id="path8"
       sodipodi:nodetypes="cccscsc" />
  </g>
  <text
     xml:space="preserve"
     style="font-size:4.23008px;fill:none;stroke:#818586;stroke-width:0.4;stroke-opacity:1;stroke-dasharray:none"
     x="6.0913343"
     y="9.8352747"
     id="text853"><tspan
       sodipodi:role="line"
       id="tspan851"
       x="6.0913343"
       y="9.8352747"
       style="stroke-width:0.4;fill:none;stroke:#818586;stroke-opacity:1;stroke-dasharray:none">1</tspan></text>
</svg>
